0.421086
0.394799
0.447405
0.394404
0.473675
0.642921
0.368360
0.714266
0.447385
0.500128
0.571410
0.421005
0.447326
0.473697
0.500055
0.473605
0.642843
0.342118
0.500018
0.642930
0.473653
0.500124
0.473676
0.421111
0.473688
0.473676
0.447363
0.785763
0.500000
0.571399
0.785750
0.473671
0.571506
0.342031
0.499984
0.473650
0.500150
0.571437
0.642949
0.500000
0.642852
0.500094
0.421068
0.714343
0.447364
0.500003
0.447383
0.571475
0.642868
0.571405
0.473674
0.473696
0.500082
0.473662
0.714262
0.447411
0.714278
0.785763
0.447344
0.421060
0.473696
0.421056
0.394691
0.499987
0.499998
0.499998
0.642932
0.500105
0.447405
0.499998
0.571566
0.473715
0.421025
0.447403
0.447134
0.500094
0.571525
0.500090
0.394725
0.642824
0.420982
0.447092
0.394784
0.342170
0.499981
0.447344
0.571405
0.500086
0.447398
0.500071
0.473717
0.500122
0.571479
0.499998
0.500006
0.642814
0.473694
0.368430
0.571316
0.571525
