0.500000
0.488304
0.482456
0.482456
0.482456
0.128655
0.473684
0.485380
0.000000
0.494152
0.488304
0.488304
0.488304
0.500000
0.479532
0.494152
0.479532
0.464912
0.488304
0.494152
0.467836
0.476608
0.494152
0.432749
0.488304
0.500000
0.497076
0.383041
0.421053
0.488304
0.488304
0.494152
0.476608
0.488304
0.470760
0.473684
0.494152
0.500000
0.470760
0.409357
0.488304
0.488304
0.488304
0.488304
0.488304
0.488304
0.432749
0.479532
0.494152
0.497076
0.500000
0.494152
0.494152
0.488304
0.494152
0.500000
0.488304
0.482456
0.491228
0.482456
0.435673
0.479532
0.485380
0.494152
0.467836
0.488304
0.494152
0.494152
0.494152
0.470760
0.488304
0.494152
0.470760
0.625000
0.500000
0.488304
0.488304
0.482456
0.488304
0.482456
0.500000
0.494152
0.482456
0.494152
0.494152
0.500000
0.500000
0.488304
0.479532
0.476608
0.461988
0.482456
0.482456
0.450292
0.485380
0.485380
0.488304
0.488304
0.488304
0.476608
